…
print(physics_words)
```


```
# A tibble: 12,671 x 3
   author              word      n
   <chr>               <chr> <int>
 1 Galilei, Galileo    the    3760
 2 Tesla, Nikola       the    3604
 3 Huygens, Christiaan the    3553
 4 Einstein, Albert    the    2993
 5 Galilei, Galileo    of     2049
 6 Einstein, Albert    of     2028
 7 Tesla, Nikola       of     1737
 8 Huygens, Christiaan of     1708
 9 Huygens, Christiaan to     1207
10 Tesla, Nikola       a      1176
# ... with 12,661 more rows
```
…
