…
Now, if we want to count the number of instances of each word, we can use the `count()` function in the dplyr package.


```R
library(dplyr)
#I'll use the "pipe" function %>% to pass the output of each line directly to the next
tidy_books %>% 
  anti_join(stop_words) %>% #remove common "stop words" here before counting
  count(word, sort = TRUE)
```

```    
# A tibble: 13,914 x 2
   word       n
   <chr>  <int>
 1 miss    1855
 2 time    1337
 3 fanny    862
 4 dear     822
 5 lady     817
 6 sir      806
 7 day      797
 8 emma     787
 9 sister   727
10 house    699
# ... with 13,904 more rows
```
…
